%YAML 1.1
%TAG !u! tag:unity3d.com,2011:
--- !u!74 &7400000
AnimationClip:
  m_ObjectHideFlags: 0
  m_PrefabParentObject: {fileID: 0}
  m_PrefabInternal: {fileID: 0}
  m_Name: Attacking
  serializedVersion: 6
  m_Legacy: 0
  m_Compressed: 0
  m_UseHighQualityCurve: 1
  m_RotationCurves: []
  m_CompressedRotationCurves: []
  m_EulerCurves: []
  m_PositionCurves: []
  m_ScaleCurves: []
  m_FloatCurves: []
  m_PPtrCurves:
  - curve:
    - time: 0
      value: {fileID: 21300000, guid: 3fc3761135efb455c9c4896425774302, type: 3}
    - time: 0.083333336
      value: {fileID: 21300000, guid: 222aaccb9f58248ed9622b029a30fc56, type: 3}
    - time: 0.16666667
      value: {fileID: 21300000, guid: d55863ef13125433f9b216d863d6a854, type: 3}
    - time: 0.25
      value: {fileID: 21300000, guid: 5754fed8104e34f8891375c37e2eb9b2, type: 3}
    - time: 0.33333334
      value: {fileID: 21300000, guid: 1a37404b3fc724f70a3e568b32df2c8b, type: 3}
    - time: 0.41666666
      value: {fileID: 21300000, guid: ccdb0376f58374cceb543b431c19405a, type: 3}
    - time: 0.5
      value: {fileID: 21300000, guid: 2def32e5a5d7843b2b46dbdb69e018b8, type: 3}
    - time: 0.5833333
      value: {fileID: 21300000, guid: 73edd5054cf474ce7aae29374cbdd756, type: 3}
    - time: 0.6666667
      value: {fileID: 21300000, guid: 35363d33011394eec8820cb4868f5f89, type: 3}
    - time: 0.75
      value: {fileID: 21300000, guid: 314a458d3320e4f6099e5d27f93ea4a5, type: 3}
    attribute: m_Sprite
    path: 
    classID: 212
    script: {fileID: 0}
  m_SampleRate: 12
  m_WrapMode: 0
  m_Bounds:
    m_Center: {x: 0, y: 0, z: 0}
    m_Extent: {x: 0, y: 0, z: 0}
  m_ClipBindingConstant:
    genericBindings:
    - serializedVersion: 2
      path: 0
      attribute: 0
      script: {fileID: 0}
      typeID: 212
      customType: 23
      isPPtrCurve: 1
    pptrCurveMapping:
    - {fileID: 21300000, guid: 3fc3761135efb455c9c4896425774302, type: 3}
    - {fileID: 21300000, guid: 222aaccb9f58248ed9622b029a30fc56, type: 3}
    - {fileID: 21300000, guid: d55863ef13125433f9b216d863d6a854, type: 3}
    - {fileID: 21300000, guid: 5754fed8104e34f8891375c37e2eb9b2, type: 3}
    - {fileID: 21300000, guid: 1a37404b3fc724f70a3e568b32df2c8b, type: 3}
    - {fileID: 21300000, guid: ccdb0376f58374cceb543b431c19405a, type: 3}
    - {fileID: 21300000, guid: 2def32e5a5d7843b2b46dbdb69e018b8, type: 3}
    - {fileID: 21300000, guid: 73edd5054cf474ce7aae29374cbdd756, type: 3}
    - {fileID: 21300000, guid: 35363d33011394eec8820cb4868f5f89, type: 3}
    - {fileID: 21300000, guid: 314a458d3320e4f6099e5d27f93ea4a5, type: 3}
  m_AnimationClipSettings:
    serializedVersion: 2
    m_AdditiveReferencePoseClip: {fileID: 0}
    m_AdditiveReferencePoseTime: 0
    m_StartTime: 0
    m_StopTime: 0.8333333
    m_OrientationOffsetY: 0
    m_Level: 0
    m_CycleOffset: 0
    m_HasAdditiveReferencePose: 0
    m_LoopTime: 0
    m_LoopBlend: 0
    m_LoopBlendOrientation: 0
    m_LoopBlendPositionY: 0
    m_LoopBlendPositionXZ: 0
    m_KeepOriginalOrientation: 0
    m_KeepOriginalPositionY: 1
    m_KeepOriginalPositionXZ: 0
    m_HeightFromFeet: 0
    m_Mirror: 0
  m_EditorCurves: []
  m_EulerEditorCurves: []
  m_HasGenericRootTransform: 0
  m_HasMotionFloatCurves: 0
  m_GenerateMotionCurves: 0
  m_Events: []
